2018/05/27 07:23:46 - DailyCallingReport - Opening transformation: [/opt/BI_Codes/BIReports/Reports/DailyCallingReportKettle.ktr]
2018/05/27 07:23:46 - DailyCallingReport - Loading transformation from XML file [/opt/BI_Codes/BIReports/Reports/DailyCallingReportKettle.ktr]
2018/05/27 07:23:46 - DailyCallingReport - Starting transformation...(file=${REPORT_ETL}DailyCallingReportKettle.ktr, name=DailyCallingReport, repinfo=null)
2018/05/27 07:23:46 - DailyCallingReport - Using run configuration [Pentaho local]
2018/05/27 07:23:46 - DailyCallingReport - Using legacy execution engine
2018/05/27 07:23:46 - DailyCallingReportKettle - Transformation is pre-loaded.
2018/05/27 07:42:41 - Source Data.0 - ERROR (version 7.1.0.0-12, build 1 from 2017-05-16 17.18.02 by buildguy) : Unexpected error closing query : org.pentaho.di.core.exception.KettleDatabaseException: 
2018/05/27 07:42:41 - Source Data.0 - Couldn't close query: resultset or prepared statements
2018/05/27 07:42:41 - Source Data.0 - The server returned an unspecified error.
2018/05/27 07:42:41 - DailyCallingReportKettle - ERROR (version 7.1.0.0-12, build 1 from 2017-05-16 17.18.02 by buildguy) : Errors detected!
2018/05/27 07:42:42 - DailyCallingReportKettle - ERROR (version 7.1.0.0-12, build 1 from 2017-05-16 17.18.02 by buildguy) : Errors detected!
2018/05/27 07:42:42 - DailyCallingReportKettle - ERROR (version 7.1.0.0-12, build 1 from 2017-05-16 17.18.02 by buildguy) : Errors detected!
2018/05/27 10:53:45 - DailyCallingReport - Loading transformation from XML file [/opt/BI_Codes/BIReports/Reports/DailyCallingReportKettle.ktr]
2018/05/27 10:53:45 - DailyCallingReport - Using run configuration [Pentaho local]
2018/05/27 10:53:45 - DailyCallingReport - Using legacy execution engine
2018/05/28 03:11:47 - DailyCallingReport - Loading transformation from XML file [/opt/BI_Codes/BIReports/Reports/DailyCallingReportKettle.ktr]
2018/05/28 03:11:48 - DailyCallingReport - Using run configuration [Pentaho local]
2018/05/28 03:11:48 - DailyCallingReport - Using legacy execution engine
2018/05/28 11:08:12 - DailyCallingReport - Loading transformation from XML file [/opt/BI_Codes/BIReports/Reports/DailyCallingReportKettle.ktr]
2018/05/28 11:08:14 - DailyCallingReport - Using run configuration [Pentaho local]
2018/05/28 11:08:14 - DailyCallingReport - Using legacy execution engine
2018/05/29 01:06:48 - DailyCallingReport - Loading transformation from XML file [/opt/BI_Codes/BIReports/Reports/DailyCallingReportKettle.ktr]
2018/05/29 01:06:49 - DailyCallingReport - Using run configuration [Pentaho local]
2018/05/29 01:06:49 - DailyCallingReport - Using legacy execution engine
2018/05/29 17:58:22 - DailyCallingReport - Loading transformation from XML file [/opt/BI_Codes/BIReports/Reports/DailyCallingReportKettle.ktr]
2018/05/29 17:58:23 - DailyCallingReport - Using run configuration [Pentaho local]
2018/05/29 17:58:23 - DailyCallingReport - Using legacy execution engine
2018/05/30 01:06:47 - DailyCallingReport - Loading transformation from XML file [/opt/BI_Codes/BIReports/Reports/DailyCallingReportKettle.ktr]
2018/05/30 01:06:48 - DailyCallingReport - Using run configuration [Pentaho local]
2018/05/30 01:06:48 - DailyCallingReport - Using legacy execution engine
2018/05/31 01:06:47 - DailyCallingReport - Loading transformation from XML file [/opt/BI_Codes/BIReports/Reports/DailyCallingReportKettle.ktr]
2018/05/31 01:06:48 - DailyCallingReport - Using run configuration [Pentaho local]
2018/05/31 01:06:48 - DailyCallingReport - Using legacy execution engine
