2018/05/27 12:19:55 - FarmTaggReport - Loading transformation from XML file [/opt/BI_Codes/BIReports/Reports/FarmTaggReportKettle.ktr]
2018/05/27 12:19:55 - FarmTaggReport - Using run configuration [Pentaho local]
2018/05/27 12:19:55 - FarmTaggReport - Using legacy execution engine
2018/05/28 09:10:19 - FarmTaggReport - Loading transformation from XML file [/opt/BI_Codes/BIReports/Reports/FarmTaggReportKettle.ktr]
2018/05/28 09:10:21 - FarmTaggReport - Using run configuration [Pentaho local]
2018/05/28 09:10:21 - FarmTaggReport - Using legacy execution engine
2018/05/29 02:51:48 - FarmTaggReport - Loading transformation from XML file [/opt/BI_Codes/BIReports/Reports/FarmTaggReportKettle.ktr]
2018/05/29 02:51:49 - FarmTaggReport - Using run configuration [Pentaho local]
2018/05/29 02:51:49 - FarmTaggReport - Using legacy execution engine
2018/05/30 02:51:48 - FarmTaggReport - Loading transformation from XML file [/opt/BI_Codes/BIReports/Reports/FarmTaggReportKettle.ktr]
2018/05/30 02:51:49 - FarmTaggReport - Using run configuration [Pentaho local]
2018/05/30 02:51:49 - FarmTaggReport - Using legacy execution engine
2018/05/31 02:51:48 - FarmTaggReport - Loading transformation from XML file [/opt/BI_Codes/BIReports/Reports/FarmTaggReportKettle.ktr]
2018/05/31 02:51:49 - FarmTaggReport - Using run configuration [Pentaho local]
2018/05/31 02:51:49 - FarmTaggReport - Using legacy execution engine
