2018/05/27 12:56:43 - VodafoneExpiredSubDataKettle - Loading transformation from XML file [/opt/BI_Codes/BIReports/Reports/VodafoneExpiredSubData.ktr]
2018/05/27 12:56:43 - VodafoneExpiredSubDataKettle - Using run configuration [Pentaho local]
2018/05/27 12:56:43 - VodafoneExpiredSubDataKettle - Using legacy execution engine
2018/05/28 09:30:19 - VodafoneExpiredSubDataKettle - Loading transformation from XML file [/opt/BI_Codes/BIReports/Reports/VodafoneExpiredSubData.ktr]
2018/05/28 09:30:22 - VodafoneExpiredSubDataKettle - Using run configuration [Pentaho local]
2018/05/28 09:30:22 - VodafoneExpiredSubDataKettle - Using legacy execution engine
2018/05/29 07:51:47 - VodafoneExpiredSubDataKettle - Loading transformation from XML file [/opt/BI_Codes/BIReports/Reports/VodafoneExpiredSubData.ktr]
2018/05/29 07:51:48 - VodafoneExpiredSubDataKettle - Using run configuration [Pentaho local]
2018/05/29 07:51:48 - VodafoneExpiredSubDataKettle - Using legacy execution engine
2018/05/30 07:51:47 - VodafoneExpiredSubDataKettle - Loading transformation from XML file [/opt/BI_Codes/BIReports/Reports/VodafoneExpiredSubData.ktr]
2018/05/30 07:51:49 - VodafoneExpiredSubDataKettle - Using run configuration [Pentaho local]
2018/05/30 07:51:49 - VodafoneExpiredSubDataKettle - Using legacy execution engine
2018/05/31 07:51:47 - VodafoneExpiredSubDataKettle - Loading transformation from XML file [/opt/BI_Codes/BIReports/Reports/VodafoneExpiredSubData.ktr]
2018/05/31 07:51:48 - VodafoneExpiredSubDataKettle - Using run configuration [Pentaho local]
2018/05/31 07:51:48 - VodafoneExpiredSubDataKettle - Using legacy execution engine
