2018/05/27 11:02:57 - Weather_MHKettle - Loading transformation from XML file [/opt/BI_Codes/BIReports/Reports/WeatherMHKettle.ktr]
2018/05/27 11:02:57 - Weather_MHKettle - Using run configuration [Pentaho local]
2018/05/27 11:02:57 - Weather_MHKettle - Using legacy execution engine
2018/05/27 17:23:53 - Weather_MHKettle - Loading transformation from XML file [/opt/BI_Codes/BIReports/Reports/WeatherMHKettle.ktr]
2018/05/27 17:23:54 - Weather_MHKettle - Using run configuration [Pentaho local]
2018/05/27 17:23:54 - Weather_MHKettle - Using legacy execution engine
2018/05/28 06:45:20 - Weather_MHKettle - Loading transformation from XML file [/opt/BI_Codes/BIReports/Reports/WeatherMHKettle.ktr]
2018/05/28 06:45:22 - Weather_MHKettle - Using run configuration [Pentaho local]
2018/05/28 06:45:22 - Weather_MHKettle - Using legacy execution engine
2018/05/28 16:00:15 - Weather_MHKettle - Loading transformation from XML file [/opt/BI_Codes/BIReports/Reports/WeatherMHKettle.ktr]
2018/05/28 16:00:16 - Weather_MHKettle - Using run configuration [Pentaho local]
2018/05/28 16:00:16 - Weather_MHKettle - Using legacy execution engine
2018/05/29 06:46:47 - Weather_MHKettle - Loading transformation from XML file [/opt/BI_Codes/BIReports/Reports/WeatherMHKettle.ktr]
2018/05/29 06:46:48 - Weather_MHKettle - Using run configuration [Pentaho local]
2018/05/29 06:46:48 - Weather_MHKettle - Using legacy execution engine
2018/05/29 15:46:48 - Weather_MHKettle - Loading transformation from XML file [/opt/BI_Codes/BIReports/Reports/WeatherMHKettle.ktr]
2018/05/29 15:46:49 - Weather_MHKettle - Using run configuration [Pentaho local]
2018/05/29 15:46:49 - Weather_MHKettle - Using legacy execution engine
2018/05/30 06:46:48 - Weather_MHKettle - Loading transformation from XML file [/opt/BI_Codes/BIReports/Reports/WeatherMHKettle.ktr]
2018/05/30 06:46:49 - Weather_MHKettle - Using run configuration [Pentaho local]
2018/05/30 06:46:49 - Weather_MHKettle - Using legacy execution engine
2018/05/30 15:46:47 - Weather_MHKettle - Loading transformation from XML file [/opt/BI_Codes/BIReports/Reports/WeatherMHKettle.ktr]
2018/05/30 15:46:48 - Weather_MHKettle - Using run configuration [Pentaho local]
2018/05/30 15:46:48 - Weather_MHKettle - Using legacy execution engine
2018/05/31 06:46:47 - Weather_MHKettle - Loading transformation from XML file [/opt/BI_Codes/BIReports/Reports/WeatherMHKettle.ktr]
2018/05/31 06:46:48 - Weather_MHKettle - Using run configuration [Pentaho local]
2018/05/31 06:46:48 - Weather_MHKettle - Using legacy execution engine
2018/05/31 15:46:47 - Weather_MHKettle - Loading transformation from XML file [/opt/BI_Codes/BIReports/Reports/WeatherMHKettle.ktr]
2018/05/31 15:46:48 - Weather_MHKettle - Using run configuration [Pentaho local]
2018/05/31 15:46:48 - Weather_MHKettle - Using legacy execution engine
